digraph G {
  "base/base_export.h" -> "base/cpu.h"
  "base/basictypes.h" -> "base/cpu.cc"
  "base/strings/string_piece.h" -> "base/cpu.cc"
  "build/build_config.h" -> "base/cpu.cc"
  "base/macros.h" -> "base/basictypes.h"
  "base/port.h" -> "base/basictypes.h"
  "base/compiler_specific.h" -> "base/macros.h"
  "build/build_config.h" -> "base/compiler_specific.h"
  "build/build_config.h" -> "base/port.h"
}
